066026D5265B5FC072088893377C9F24.cache.js
user.agent gecko1_8

2D5F5D466757A8F7671AAAED27F5A5B1.cache.js
user.agent ie10

84438853721E6FFEB63C529795E06C82.cache.js
user.agent ie9

8B058E819FBDC0DF0DA52EDB1B51456E.cache.js
user.agent safari

9B4179B895666B42F911B9CA81D6A838.cache.js
user.agent ie8

Devmode:devmode.js