39A8414715F50EA164CAC426BD0460B6.cache.js
user.agent safari

C893B664598036A85A715B04FFDEA5A7.cache.js
user.agent gecko1_8

D9CCF1C52BE95A4C809A11285FE95661.cache.js
user.agent ie10

E610B9AC4F1C9A2D7FF8E57040890B7C.cache.js
user.agent ie9

EE433BA0F60C33F27D8ABA50F7572A30.cache.js
user.agent ie8

Devmode:devmode.js